{
  "products": [
    {
      "title": "Copyright Registration",
      "slug": "copyright-registration",
      "price": 94,
      "automated": true,
      "published": true,
      "featured": true,
      "text": "",
      "html": "",
      "date_created": "2023-01-14T00:00:00.000Z",
      "date_modified": "2023-02-14T00:00:00.000Z",
      "fees": {
        "government_filing_fee": 65
      },
      "category": "Intellectual Property and Technology",
      "subcategory": "Trademarks",
      "tags": [
        "copyright registration",
        "copyright application",
        "copyright",
        "filing",
        "library of congress"
      ],
      "jurisdiction": "National",
      "state": "National",
      "image_path": "mclawassets/images/product_images/copyright-registration.pdf",
      "description": "Basic copyright service - includes electronic filing of copyright application and delivery confirmation of package arrival at the Library of Congress.  ",
      "notes": [
        {
          "title": "TODO note title",
          "text": "[BEGIN: NOTE] Close Drafting Not"
        },
        {
          "title": "TODO note title",
          "text": "[BEGIN: NOTE] Close Drafting Not"
        }
      ],
      "faqs": [
        {
          "question": "How long will it take to register a trademark?",
          "answer": "Usually, the process takes 12 to 18 months. Registering your trademark is a complex procedure that involves your application moving through various stages. Learning about each stage in the process will help you understand why getting a trademark takes as long as it does."
        },
        {
          "question": "How many trademark classes do I need to register in?",
          "answer": "When you're preparing to file a trademark registration application, you must determine your trademark's classification. In most cases, your product or service may fall under several classes. If so, you will need to determine which one is the primary class, or file additional applications to register your trademark under each one."
        },
        {
          "question": "How can I check my trademark registration?",
          "answer": "After registering your trademark, you can look it up by the registration number provided by the USPTO. You'll also have a search code only given to registered trademarks. When viewing the information, you can read all about your trademark and see how it shows up in the search results."
        },
        {
          "question": "What is the Trademark Electronic Application System (TEAS)?",
          "answer": "The Trademark Electronic Application System (TEAS) allows you to fill out online USPTO forms. You can submit the forms directly to the USPTO over the Internet and pay by credit cards, electronic funds transfer, or through an existing USPTO deposit account. TEAS can also be used to file other documents including a response to an examining attorney's Office action, a change of address, an allegation of use, and post registration maintenance documents."
        },
        {
          "question": "What is the Trademark Electronic Application System (TEAS)?",
          "answer": "The Trademark Electronic Application System (TEAS) allows you to fill out online USPTO forms. You can submit the forms directly to the USPTO over the Internet and pay by credit cards, electronic funds transfer, or through an existing USPTO deposit account. TEAS can also be used to file other documents including a response to an examining attorney's Office action, a change of address, an allegation of use, and post registration maintenance documents."
        }
      ],
      "related_products": [
        "website-copyright-policy",
        "domain-name-cease-and-desist-letter",
        "copyright-infringement-cease-and-desist-letter",
        "dmca-complaint-takedown-notice"
      ],
      "form_fields": [
        {
          "type": "select",
          "name": "copyright_type",
          "id": "copyright_type",
          "value": "",
          "required": "true",
          "label": "What type of copyright are you trying to protect?"
        },
        {
          "type": "text",
          "name": "copyright_title",
          "id": "copyright_title",
          "value": "",
          "required": "true"
        }
      ]
    },
    {
      "title": "Trademark Registration",
      "slug": "trademark-registration",
      "price": 399,
      "automated": true,
      "published": true,
      "featured": true,
      "text": "",
      "html": "",
      "date_created": "2022-08-14T00:00:00.000Z",
      "date_modified": "2022-08-14T00:00:00.000Z",
      "fees": {
        "teas_basic": 350,
        "teas_plus": 250
      },
      "category": "Intellectual Property and Technology",
      "subcategory": "Trademarks",
      "tags": [
        "trademark registration",
        "trademark application",
        "trademark",
        "filing",
        "uspto"
      ],
      "jurisdiction": "National",
      "state": "National",
      "image_path": "mclawassets/images/product_images/trademark-registration.pdf",
      "description": "Protect your name, logo or slogan in 180+ countries. Our best trademark filing starts at $399 (+ government fee). We will prepare and file your trademark application with the USPTO, granting you priority federal trademark rights in all 50 states. When you give us the green light, we'll e-file with the United States Patent and Trademark Office (USPTO)—and you'll get a decision in typically three to six months.",
      "notes": [
        {
          "title": "TODO note title",
          "text": "[BEGIN: NOTE] Close Drafting Not"
        },
        {
          "title": "TODO note title",
          "text": "[BEGIN: NOTE] Close Drafting Not"
        }
      ],
      "faqs": [
        {
          "question": "How long will it take to register a trademark?",
          "answer": "Usually, the process takes 12 to 18 months. Registering your trademark is a complex procedure that involves your application moving through various stages. Learning about each stage in the process will help you understand why getting a trademark takes as long as it does."
        },
        {
          "question": "How many trademark classes do I need to register in?",
          "answer": "When you're preparing to file a trademark registration application, you must determine your trademark's classification. In most cases, your product or service may fall under several classes. If so, you will need to determine which one is the primary class, or file additional applications to register your trademark under each one."
        },
        {
          "question": "How can I check my trademark registration?",
          "answer": "After registering your trademark, you can look it up by the registration number provided by the USPTO. You'll also have a search code only given to registered trademarks. When viewing the information, you can read all about your trademark and see how it shows up in the search results."
        },
        {
          "question": "What is the Trademark Electronic Application System (TEAS)?",
          "answer": "The Trademark Electronic Application System (TEAS) allows you to fill out online USPTO forms. You can submit the forms directly to the USPTO over the Internet and pay by credit cards, electronic funds transfer, or through an existing USPTO deposit account. TEAS can also be used to file other documents including a response to an examining attorney's Office action, a change of address, an allegation of use, and post registration maintenance documents."
        },
        {
          "question": "What is the Trademark Electronic Application System (TEAS)?",
          "answer": "The Trademark Electronic Application System (TEAS) allows you to fill out online USPTO forms. You can submit the forms directly to the USPTO over the Internet and pay by credit cards, electronic funds transfer, or through an existing USPTO deposit account. TEAS can also be used to file other documents including a response to an examining attorney's Office action, a change of address, an allegation of use, and post registration maintenance documents."
        }
      ],
      "related_products": [
        "website-privacy-policy",
        "domain-name-cease-and-desist-letter",
        "performance-review-policy",
        "dmca-complaint-takedown-notice"
      ],
      "form_fields": [
        {
          "type": "select",
          "name": "trademark_type",
          "id": "trademark_type",
          "value": "",
          "required": "true",
          "label": "What type of trademark are you trying to protect?"
        },
        {
          "type": "text",
          "name": "trademark_name",
          "id": "trademark_name",
          "value": "",
          "required": "true"
        }
      ]
    },
    {
      "title": "Mobile Application Privacy Policy",
      "slug": "mobile-application-privacy-policy",
      "price": 445,
      "automated": false,
      "published": true,
      "featured": true,
      "text": "",
      "html": "",
      "date_created": "2022-08-14T00:00:00.000Z",
      "date_modified": "2022-08-14T00:00:00.000Z",
      "fees": {},
      "category": "Intellectual Property and Technology",
      "subcategory": "Privacy and Data Security",
      "tags": [
        "privacy",
        "security",
        "coppa",
        "ccpa",
        "mobile privacy",
        "application"
      ],
      "jurisdiction": "National",
      "state": "National",
      "image_path": "mclawassets/images/product_images/mobile-application-privacy-policy.pdf",
      "description": "A Mobile Application Privacy Policy for use by an online business in connection with the collection, storage, use, and disclosure of personal information, including for the purpose of selling goods or services to users of the application, or for contacting users with direct marketing information. This document package includes your customized legal document, an instructional guide with directions for using the document, a three-month MC Law Law Library subscription to research your legal issues, and lifetime monitoring and updates.",
      "notes": [
        {
          "title": "",
          "text": ""
        },
        {
          "title": "",
          "text": ""
        }
      ],
      "faqs": [
        {
          "question": "Do I need a privacy policy?",
          "answer": "If you collect any sort of personal information about visitors to your website or users of your app then you legally need to have a Privacy Policy."
        },
        {
          "question": "Is a privacy policy required by law?",
          "answer": "This is the most important reason to have a Privacy Policy on your website or app. Privacy laws in most countries dictate that website owners and app developers need to make a Privacy Policy available to their users. For example, in the US the California Online Privacy Protection Act (CalOPPA) instructs that all commercial websites and apps that collect and maintain personally identifiable information from California residents must have a Privacy Policy"
        },
        {
          "question": "Can I request the email address of a customer without a Privacy Policy?",
          "answer": "The bottom line is that if you request any information from a customer through your website or app, including an email address, you need a Privacy Policy."
        },
        {
          "question": "Can you explain third-party cookies? What are they? Why do they present a privacy issue?",
          "answer": "Cookies (also referred to as HTTP cookie, web cookie, browser cookie) are small pieces of data sent from a website and stored in your browser while browsing that website. They were designed to help websites remember or discover certain information about the visiting user. Essentially, it allows site owners and third parties to track the user’s activity across the web.\n\nThis is also the root of the main privacy concerns. So called tracking cookies, or especially their subset, third-party tracking cookies are used to compile long-term records of individuals’ browsing histories. These cookies allow for a rather complete profile by tracking user behavior on multiple sites. An example is Google AdSense and Analytics that are able to serve personalized advertising and searches.\n\nThis cookie characteristic effectively makes it personal data that is able to track you as an individual. Most countries’ laws require cookies to be mentioned in a privacy policy."
        },
        {
          "question": "If I have a mobile app, what’s a good practice for a privacy policy?",
          "answer": "It’s generally considered to be good practice to link to your privacy policy from within the app AND from the app store “download page”. The reason for this is that the users should be able to see the data collection practices before they actually happen. A third place where your privacy policy link can’t hurt is on your promotional website/page for the app."
        }
      ],
      "related_products": [
        "website-privacy-policy",
        "domain-name-cease-and-desist-letter",
        "performance-review-policy",
        "dmca-complaint-takedown-notice"
      ],
      "form_fields": [
        {
          "type": "text",
          "name": "company_name",
          "id": "company_name",
          "value": "",
          "required": "true",
          "label": "What is the name of your company or business?"
        },
        {
          "type": "select",
          "name": "entity_type",
          "id": "entity_type",
          "value": "",
          "options": [
            "corporation",
            "llc",
            "partnership",
            "individual"
          ],
          "required": "true"
        }
      ]
    },
 {
      "title": "Website Terms of Use",
      "slug": "website-terms-of-use",
      "price": 489,
      "automated": false,
      "published": true,
      "featured": true,
      "text": "",
      "html": "",
      "date_created": "2022-08-14T00:00:00.000Z",
      "date_modified": "2022-08-14T00:00:00.000Z",
      "fees": {},
      "category": "Intellectual Property and Technology",
      "subcategory": "Internet",
      "tags": [
        "website",
        "internet",
        "security",
        "terms of use",
        "terms of service",
        "website terms"
      ],
      "jurisdiction": "National",
      "state": "National",
      "image_path": "mclawassets/images/product_images/website-terms-of-use.pdf",
      "description": "A Website Terms of Use that defines the terms and conditions for access to and use of a website, drafted from the website owner's perspective.  This document package includes your customized legal document, an instructional guide with directions for using the document, a three-month MC Law Law Library subscription to research your legal issues, and lifetime monitoring and updates.",
      "notes": [
        {
          "title": "",
          "text": ""
        },
        {
          "title": "",
          "text": ""
        }
      ],
      "faqs": [
        {
          "question": "Do I need a terms of use for my website?",
          "answer": "If you collect any sort of personal information about visitors to your website or users of your app then you legally need to have a Website Terms of Use."
        },
        {
          "question": "Is a terms of use required by law?",
          "answer": "This is the most important reason to have a terms of use on your website or app. Internet laws in most countries dictate that website owners and app developers need to make a terms of use available to their users."
        },
        {
          "question": "Are Terms and Conditions Legally Binding?",
          "answer": "Yes, Terms and Conditions are legally binding. Or at least, they can be legally binding if the following are satisfied:<ul><li>You have obtained acceptance in the proper way. This means that your customer has actively agreed to your Terms and Conditions.</li><li>Your Terms and Conditions agreement is sufficiently clear. This means your customer understands (or it is reasonable to assume that you customer understands) what they are agreeing to.</li><li>Your Terms and Conditions agreement is legally valid. The courts will not enforce \"unfair terms\" in Terms and Conditions agreements.</li></ul>"
        },
        {
          "question": "Are Terms and Conditions a Contract?",
          "answer": "Terms and Conditions are a business agreement and can be a type of contract, so long as they meet the elements of a contract under law."
        },
        {
          "question": "Are Terms and Conditions Legally Binding If Not Signed?",
          "answer": "Terms and Conditions don't have to be \"signed\" in order to be legally binding. However, there has to be some evidence that the customer has accepted the Terms and Conditions.\n\nIf you display your Terms and Conditions on your website, app, or software, you should obtain acceptance of your Terms and Conditions via a \"clickwrap\" prompt."
        }
      ],
      "related_products": [
        "website-privacy-policy",
        "domain-name-cease-and-desist-letter",
        "performance-review-policy",
        "dmca-complaint-takedown-notice"
      ],
      "form_fields": [
        {
          "type": "text",
          "name": "company_name",
          "id": "company_name",
          "value": "",
          "required": "true",
          "label": "What is the name of your company or business?"
        },
        {
          "type": "select",
          "name": "entity_type",
          "id": "entity_type",
          "value": "",
          "options": [
            "corporation",
            "llc",
            "partnership",
            "individual"
          ],
          "required": "true"
        }
      ]
    },
    {
      "title": "Website Privacy Policy",
      "slug": "website-privacy-policy",
      "price": 449,
      "automated": false,
      "published": true,
      "featured": true,
      "text": "",
      "html": "",
      "date_created": "2022-08-14T00:00:00.000Z",
      "date_modified": "2022-08-14T00:00:00.000Z",
      "fees": {},
      "category": "Intellectual Property and Technology",
      "subcategory": "Privacy and Data Security",
      "tags": [
        "privacy",
        "security",
        "coppa",
        "ccpa",
        "website privacy"
      ],
      "jurisdiction": "National",
      "state": "National",
      "image_path": "mclawassets/images/product_images/website-privacy-policy.pdf",
      "description": "A website privacy policy is a legal document that outlines how a website collects, uses, and protects personal information that it collects from users. It is a disclosure statement that informs users of their rights, how their information is being used, and the steps taken by the website to protect their information.\n\nThe privacy policy typically contains information such as:\n\n    The types of personal information that the website collects, such as names, addresses, email addresses, and phone numbers.\n    How the website collects personal information, such as through forms, cookies, or other tracking technologies.\n    How the website uses personal information, such as to improve the website, to send marketing communications, or to personalize the user experience.\n    How the website shares personal information with third parties, such as advertisers, service providers, or government agencies.\n    How the website protects personal information, such as through encryption, firewalls, or other security measures.\n    How users can access, update, or delete their personal information.\n    How the website responds to legal requests for personal information.\n\nA website privacy policy is an important document for protecting the privacy of website users and for ensuring compliance with privacy laws and regulations. It is typically found in the footer of the website and should be easily accessible to users.",
      "notes": [
        {
          "title": "",
          "text": ""
        },
        {
          "title": "",
          "text": ""
        }
      ],
      "faqs": [
        {
          "question": "Do I need a privacy policy?",
          "answer": "In general, if your website collects any type of personal information from its users, such as names, email addresses, phone numbers, or location data, then you should have a privacy policy in place. Additionally, if your website uses cookies or other tracking technologies, you should disclose this in your privacy policy as well.\n\nHaving a privacy policy not only helps you comply with various privacy laws and regulations, but it also shows your users that you take their privacy seriously and that you are transparent about how you collect and use their personal information.\n\nEven if you don't collect personal information directly from users, if you use third-party services such as Google Analytics, Facebook Pixel, or other tracking tools, those services may collect personal information on your behalf. In this case, it is still a good practice to have a privacy policy in place to inform your users about these third-party services and how they collect and use personal information.\n\nTherefore, it is recommended that you have a privacy policy for your website, regardless of the type of information you collect or the size of your business."
        },
        {
          "question": "Is a privacy policy required by law?",
          "answer": "This is the most important reason to have a Privacy Policy on your website or app. Privacy laws in most countries dictate that website owners and app developers need to make a Privacy Policy available to their users. For example, in the US the California Online Privacy Protection Act (CalOPPA) instructs that all commercial websites and apps that collect and maintain personally identifiable information from California residents must have a Privacy Policy.\n\nThe requirement for a privacy policy on a website varies by country and jurisdiction. However, in many cases, websites are required to have a privacy policy by law. For example:\n\n    European Union: The General Data Protection Regulation (GDPR) requires websites that collect personal information from EU citizens to have a privacy policy that meets specific requirements.\n\n    United States: In the United States, several laws and regulations may apply depending on the type of website and the personal information collected. The California Online Privacy Protection Act (CalOPPA) requires websites that collect personal information from California residents to have a privacy policy that meets specific requirements. Additionally, the Children's Online Privacy Protection Act (COPPA) requires websites that collect personal information from children under the age of 13 to have a privacy policy that meets specific requirements.\n\n    Canada: The Personal Information Protection and Electronic Documents Act (PIPEDA) requires websites that collect personal information from Canadian citizens to have a privacy policy that meets specific requirements.\n\n    Other countries: Other countries have their own privacy laws and regulations that may require websites to have a privacy policy.\n\nIn summary, the requirement for a privacy policy on a website depends on the laws and regulations in the country or jurisdiction where the website operates or where its users reside. Therefore, it is important to consult with a legal professional to determine whether a privacy policy is required by law for your specific website."
        },
        {
          "question": "Can I request the email address of a customer without a Privacy Policy?",
          "answer": "The bottom line is that if you request any information from a customer through your website or app, including an email address, you need a Privacy Policy."
        },
        {
          "question": "Can you explain third-party cookies? What are they? Why do they present a privacy issue?",
          "answer": "Cookies (also referred to as HTTP cookie, web cookie, browser cookie) are small pieces of data sent from a website and stored in your browser while browsing that website. They were designed to help websites remember or discover certain information about the visiting user. Essentially, it allows site owners and third parties to track the user’s activity across the web.\n\nThis is also the root of the main privacy concerns. So called tracking cookies, or especially their subset, third-party tracking cookies are used to compile long-term records of individuals’ browsing histories. These cookies allow for a rather complete profile by tracking user behavior on multiple sites. An example is Google AdSense and Analytics that are able to serve personalized advertising and searches.\n\nThis cookie characteristic effectively makes it personal data that is able to track you as an individual. Most countries’ laws require cookies to be mentioned in a privacy policy."
        },
        {
          "question": "If I have a mobile app, what’s a good practice for a privacy policy?",
          "answer": "It’s generally considered to be good practice to link to your privacy policy from within the app AND from the app store “download page”. The reason for this is that the users should be able to see the data collection practices before they actually happen. A third place where your privacy policy link can’t hurt is on your promotional website/page for the app."
        }
      ],
      "related_products": [
        "website-privacy-policy",
        "domain-name-cease-and-desist-letter",
        "performance-review-policy",
        "dmca-complaint-takedown-notice"
      ],
      "form_fields": [
        {
          "type": "text",
          "name": "company_name",
          "id": "company_name",
          "value": "",
          "required": "true",
          "label": "What is the name of your company or business?"
        },
        {
          "type": "select",
          "name": "entity_type",
          "id": "entity_type",
          "value": "",
          "options": [
            "corporation",
            "llc",
            "partnership",
            "individual"
          ],
          "required": "true"
        }
      ]
    },
    {
      "title": "Confidential Information Policy",
      "slug": "confidential-information-policy",
      "price": 385,
      "automated": false,
      "published": true,
      "featured": true,
      "text": "",
      "html": "",
      "date_created": "2022-08-14T00:00:00.000Z",
      "date_modified": "2022-08-14T00:00:00.000Z",
      "fees": {},
      "category": "Labor and Employment",
      "subcategory": "Policies and Procedures",
      "tags": [
        "privacy",
        "security",
        "confidentiality",
        "employee privacy",
        "employer privacy"
      ],
      "jurisdiction": "National",
      "state": "National",
      "image_path": "mclawassets/images/product_images/confidential-information-policy.pdf",
      "description": "An employment policy addressing how employees should handle an employer's confidential information. It can be incorporated into an employee handbook or used as a stand-alone policy document. This Standard Document is drafted for private workplaces but may be useful for all employers. It is jurisdiction-neutral and based on federal law. State or local law may impose additional or different requirements, but this document is useful and relevant to employers in every state. This Standard Document has integrated notes with important explanations and drafting tips, including defining confidential information, National Labor Relations Act (NLRA) compliance, whistleblower protections, and use of confidentiality agreements with this policy. ",
      "notes": [
        {
          "title": "",
          "text": ""
        },
        {
          "title": "",
          "text": ""
        }
      ],
      "faqs": [
        {
          "question": "Do I need a privacy policy?",
          "answer": "If you collect any sort of personal information about visitors to your website or users of your app then you legally need to have a Privacy Policy."
        },
        {
          "question": "Is a privacy policy required by law?",
          "answer": "This is the most important reason to have a Privacy Policy on your website or app. Privacy laws in most countries dictate that website owners and app developers need to make a Privacy Policy available to their users. For example, in the US the California Online Privacy Protection Act (CalOPPA) instructs that all commercial websites and apps that collect and maintain personally identifiable information from California residents must have a Privacy Policy"
        },
        {
          "question": "Can I request the email address of a customer without a Privacy Policy?",
          "answer": "The bottom line is that if you request any information from a customer through your website or app, including an email address, you need a Privacy Policy."
        },
        {
          "question": "Can you explain third-party cookies? What are they? Why do they present a privacy issue?",
          "answer": "Cookies (also referred to as HTTP cookie, web cookie, browser cookie) are small pieces of data sent from a website and stored in your browser while browsing that website. They were designed to help websites remember or discover certain information about the visiting user. Essentially, it allows site owners and third parties to track the user’s activity across the web.\n\nThis is also the root of the main privacy concerns. So called tracking cookies, or especially their subset, third-party tracking cookies are used to compile long-term records of individuals’ browsing histories. These cookies allow for a rather complete profile by tracking user behavior on multiple sites. An example is Google AdSense and Analytics that are able to serve personalized advertising and searches.\n\nThis cookie characteristic effectively makes it personal data that is able to track you as an individual. Most countries’ laws require cookies to be mentioned in a privacy policy."
        },
        {
          "question": "If I have a mobile app, what’s a good practice for a privacy policy?",
          "answer": "It’s generally considered to be good practice to link to your privacy policy from within the app AND from the app store “download page”. The reason for this is that the users should be able to see the data collection practices before they actually happen. A third place where your privacy policy link can’t hurt is on your promotional website/page for the app."
        }
      ],
      "related_products": [
        "website-privacy-policy",
        "domain-name-cease-and-desist-letter",
        "performance-review-policy",
        "dmca-complaint-takedown-notice"
      ],
      "form_fields": [
        {
          "type": "text",
          "name": "company_name",
          "id": "company_name",
          "value": "",
          "required": "true",
          "label": "What is the name of your company or business?"
        },
        {
          "type": "select",
          "name": "entity_type",
          "id": "entity_type",
          "value": "",
          "options": [
            "corporation",
            "llc",
            "partnership",
            "individual"
          ],
          "required": "true"
        }
      ]
    },
    {
      "title": "DMCA Complaint (Takedown Notice)",
      "slug": "dmca-complaint-takedown-notice",
      "price": 129,
      "automated": false,
      "published": true,
      "featured": true,
      "text": "",
      "html": "",
      "date_created": "2022-08-14T00:00:00.000Z",
      "date_modified": "2022-08-14T00:00:00.000Z",
      "fees": {},
      "category": "Intellectual Property and Technology",
      "subcategory": "Copyright",
      "tags": [
        "copyright",
        "dmca",
        "takedown notice",
        "safe harbor"
      ],
      "jurisdiction": "National",
      "state": "National",
      "image_path": "mclawassets/images/product_images/dmca-complaint-takedown-notice.pdf",
      "description": "A complaint (takedown notice) under the Digital Millennium Copyright Act (DMCA) from a copyright owner to an online service provider requesting that the service provider remove or block access to infringing materials. This document package includes your customized legal document, an instructional guide with directions for using the document, a three-month MC Law Law Library subscription to research your legal issues, and lifetime monitoring and updates.",
      "notes": [
        {
          "title": "Website Privacy Policies",
          "text": "A website privacy policy notifies users about the website operator's practices concerning the collection, storage, use, and disclosure of information, including personal information. This website privacy policy is intended for use as a model for a website that collects basic personal information (for example, name, address, and credit card information) from users of the site in an online application or registration form for purposes that may include: Providing goods or services, including content and information. Using interactive features or social media applications. Direct marketing. However, no model privacy policy works for all or even most websites. Instead, a website privacy policy must be carefully drafted to specifically reflect the company's actual or anticipated information collection and privacy practices. For more information on drafting privacy disclosures, see Practice Note, Drafting Privacy Notices. This website privacy policy is designed for use in conjunction with the Standard Document, Website Terms of Use."
        },
        {
          "title": "Legal Issues",
          "text": "Websites that collect user information should post a privacy policy on the site to disclose the site operator's information collection and privacy practices. In the US, website privacy policies must comply with applicable privacy and data security laws, including: The Federal Trade Commission Act (15 U.S.C. § 45), regulating unfair or deceptive business practices and providing guidance on consumer privacy disclosures. The Children's Online Privacy Protection Act (COPPA), regulating the online privacy of children under 13. The Gramm-Leach-Bliley Act (GLBA), regulating personal information held by financial institutions. The Health Insurance Portability and Accountability Act (HIPAA), regulating health and medical information held by healthcare providers and other healthcare entities."
        }
      ],
      "faqs": [
        {
          "question": "What is a DMCA Complaint (Takedown Notice)?",
          "answer": "The DMCA was enacted in 1998 to expand existing copyright law to include and address issues surrounding the internet and digital media. A DMCA takedown notice is a tool that copyright owners can use to help enforce the protections that the DMCA provides.\n\nTitle II of the DCMA limits the liability of internet service providers (ISPs) in copyright infringement cases when they voluntarily comply with the law. A copyright owner provides notice to an ISP via the DMCA notice. To avoid liability, ISPs must respond to any complaint of copyright infringement by removing the work or the portion of work that has been identified, and contacting its client or account holder who was infringing on the copyright.\n\nSix items must be included on a DMCA takedown notice:\n\n    Signature of the copyright owner whose work was infringed\n    Identification of the copyrighted work that has allegedly been violated (e.g., name, title, type of media)\n    Specifics about the portion of the copyrighted work that has been infringed\n    Contact information for the copyright owner\n    Statement that indicates that permission has not been granted to use the copyrighted work\n    Statement that the information contained in the DMCA takedown notice is accurate and that the person writing the notice has the authority to act on behalf of the copyrighted work (can either be the copyright owner or an agent of the copyright holder).\n\nWhile sending the DMCA takedown notice to an ISP is most common, the copyright owner can also directly contact the copyright infringer directly by sending a takedown request, an invoice with the cost of licensing rights to use the material in question or a request that you add a credit to the material. You may also receive communication from an attorney representing the copyright owner seeking any of the above."
        },
        {
          "question": "What happens if I receive a DMCA Complaint (Takedown Notice)?",
          "answer": "Once you receive a DMCA notice — either directly or through your ISP — review and confirm the alleged copyright infringement listed on the takedown notice. If you can confirm that there is a copyright infringement, you should proceed with taking down the identified material.\n\nHowever, if you have reason to dispute the takedown notice because you have permission to use the copyrighted material, send a counter-notification back to the party who sent you the takedown notice — your ISP, the copyright owner or their agent.\n\nNo matter who sends you the DMCA takedown notice and whether you confirm or dispute the alleged copyright infringement, it is crucial that you respond to the notice immediately. If you fail to respond, you could be facing a copyright infringement lawsuit."
        },
        {
          "question": "Does DMCA apply outside of the USA?",
          "answer": "No, the DMCA is part of the United States copyright law, therefore is applicable only to the websites hosted in the US. All sites hosted in the US are bound to obey the law. Therefore even if the copyright owner is outside of the US, they can still issue DMCA notice if the hosting website is located in the US.\n\nHowever, there are many hosting providers and businesses who despite being hosted outside the US comply with their own copyright law and often accept DMCA takedown notices to avoid any legal aftermath in their own country.\n\nIn addition to that, most sites hosted in World Intellectual Property Organizations (WIPO) countries abide by the Digital Rights Management (DRM) law and entertain DMCA takedown notices. At this time there are around 200 countries that have signed the WIPO treaty."
        },
        {
          "question": "What is a DMCA safe harbor?",
          "answer": "DMCA safe harbor is referred to the provision of the Digital Millennium Copyright Act which provides safe heaven to Online Service Providers (OSP) and other internet intermediaries by exempting them from direct copyright infringement.\n\nThere are four safe harbors approved by Congress and in these cases, there is limited to no copyright infringement liability for Online Service Providers. Following are the permitted safe harbors under DMCA:\n\n    System caching\n    Information location tools\n    Temporary digital network communication\n    Storing information at the user’s direction on system or network\n\nThe reason behind creating DMCA safe harbors is to expand the internet and to improve the quality and variety of services to be provided on the internet. It wasn't possible to achieve it by limiting the liability for Internet Service Providers (ISPs).\n\nISPs would have found themselves committing copyright infringements while making copies of copyrighted content for the purpose of enhanced speed, hosting websites, or simply directing users to sites that possibly contain infringing content.\n\nAs such to avoid these problems and for the better efficiency and expansion of the internet, there’s limited liability for ISPs and sites falling under one of the safe harbor categories."
        },
        {
          "question": "Who must designate an agent?",
          "answer": "Any service provider (within the meaning of 17 U.S.C. 512(k)(1)) seeking the safe harbor protections of section 512. Related or affiliated service providers that are separate legal entities (e.g., corporate parents and subsidiaries) are considered separate service providers, and each must have its own separate designation."
        }
      ],
      "related_products": [
        "website-privacy-policy",
        "domain-name-cease-and-desist-letter",
        "performance-review-policy",
        "dmca-complaint-takedown-notice",
        "trademark-registration"
      ],
      "form_fields": [
        {
          "type": "text",
          "name": "copyright_owner",
          "id": "copyright_owner",
          "value": "",
          "required": "true",
          "label": "What is the name of the copyright owner?"
        },
        {
          "type": "select",
          "name": "entity_type",
          "id": "entity_type",
          "value": "",
          "options": [
            "corporation",
            "llc",
            "partnership",
            "individual"
          ],
          "required": "true"
        }
      ]
    },
    {
      "title": "Trademark Infringement Cease and Desist Letter",
      "slug": "trademark-infringement-cease-and-desist-letter",
      "price": 159,
      "automated": false,
      "published": true,
      "featured": true,
      "text": "",
      "html": "",
      "date_created": "2022-08-14T00:00:00.000Z",
      "date_modified": "2022-08-14T00:00:00.000Z",
      "fees": {},
      "category": "Intellectual Property and Technology",
      "subcategory": "Trademarks",
      "tags": [
        "trademark",
        "cease",
        "desist",
        "letter",
        "domain",
        "stop",
        "internet",
        "infringement"
      ],
      "jurisdiction": "National",
      "state": "National",
      "image_path": "mclawassets/images/product_images/trademark-infringement-cease-and-desist-letter.pdf",
      "description": "A letter from (or on behalf of) a trademark owner requesting that the recipient cease and desist from using an infringing domain name and demanding the domain name's cancellation or transfer and other remedies and assurances from the alleged infringer. This document package includes your customized legal document, an instructional guide with directions for using the document, a three-month MC Law Law Library subscription to research your legal issues, and lifetime monitoring and updates.",
      "notes": [
        {
          "title": "",
          "text": ""
        },
        {
          "title": "",
          "text": ""
        }
      ],
      "faqs": [
        {
          "question": "What Is a Cease and Desist Letter?",
          "answer": "A cease and desist letter does not automatically signify a lawsuit. It is simply a warning about illegal behavior that lets you know that further penalties could follow if the behavior, such as patent infringement, doesn't stop.\n\nHere are some ways it is possible to violate the intellectual property of another:\n\n    Plagiarizing someone's work\n    Using an invention without the right to access it\n    Engaging in illegal or suspicious activity that involves someone's work\n\nThe first step that you can take to address these issues is to send a cease and desist letter. This letter puts the person in violation on notice that they are engaging in illegal use of a property. It advises them to stop, or further action will occur.\n\nOther names for a cease and desist letter include:\n\n    Cease and desist notice\n    Cease and desist form\n    Demand letter\n    Stop harassment letter\n\nAll of these examples are simply formal letters warning the person to stop their illegal behavior."
        },
        {
          "question": "What is a Cease and Desist Order?",
          "answer": "A cease and desist order is different from a cease and desist letter. The main difference is in terms of legality. Letters have almost no legal standing. Orders do. A cease and desist order is granted by a court. It serves as a temporary injunction. The party that receives the order must stop what they're doing until a trial can be held. After the trial, a permanent injunction may be ordered.Reasons to request a cease and desist order include the following: Libel, Defamation. Libel is when you are being attacked in print. Defamation is a verbal attack on your reputation."
        },
        {
          "question": "What Are the Uses of a Cease and Desist?",
          "answer": "There is a number of cases that might lead someone to issue a cease and desist. These include:\n\n    Character assassination, libel, slander, or defamation\n    Trademark infringement\n    Copyright infringement\n    Patent infringement (Design or Utility)\n    Violation of non-competition agreement\n    Harassment, including by debt collectors under the Fair Debt Collections Practices Act\n    Breach of contract\n\nA cease and desist can also be used to stop contributory infringement. This is when someone knowingly contributes to infringement, but did not actively participate in it. It is sometimes known as \"secondary liability\" or \"contributory liability.\""
        },
        {
          "question": "When Should I Send a Cease and Desist?",
          "answer": "Use a cease and desist notice if you want to issue a formal warning to someone to stop doing what they're doing. This includes using your property, harassing you, or illegally using your trademarks.\n\nUsually, but not always, a cease and desist is the first formal step following an informal notification. Many people first informally ask the infringer to stop what they're doing. If they don't, a cease and desist is the next step. It adds a weight of formality to your request. It can also serve as a step to begin further legal processes, if necessary.\n\nA compelling reason to use a cease and desist is that it is much faster than beginning formal legal proceedings. It also often stops the offending behavior without the need to take it any further."
        },
        {
          "question": "What Legal Weight Does a Cease and Desist Notice Have?",
          "answer": "In practical terms, a cease and desist has no real legal weight. However, it fulfills an important function in the legal process. It establishes that you have told the offender about their violation. They now cannot claim they didn't know they were in violation.\n\nSuch a letter places an informal injunction on the actions of the person in violation, who can then:\n\n    Stop their behavior\n    Challenge the validity of the letter\n    Ignore it, and face the consequences of further legal action\n\nSay the cease and desist is legitimate but challenged. The next step is a formal hearing to review the validity of the demands in the notice. The judge will determine if the defendant must stop the behavior. Failure to comply after that is punishable by law."
        }
      ],
      "related_products": [
        "domain-name-cease-and-desist-letter",
        "trademark-infringement-cease-and-desist-letter",
        "copyright-infringement-cease-and-desist-letter",
        "patent-infringement-cease-and-desist-letter",
        "dmca-complaint-takedown-notice"
      ],
      "form_fields": [
        {
          "type": "text",
          "name": "copyright_owner",
          "id": "copyright_owner",
          "value": "",
          "required": "true",
          "label": "What is the name of the copyright owner?"
        },
        {
          "type": "select",
          "name": "entity_type",
          "id": "entity_type",
          "value": "",
          "options": [
            "corporation",
            "llc",
            "partnership",
            "individual"
          ],
          "required": "true"
        }
      ]
    },
    {
      "title": "Copyright Infringement Cease and Desist Letter",
      "slug": "copyright-infringement-cease-and-desist-letter",
      "price": 159,
      "automated": false,
      "published": true,
      "featured": true,
      "text": "",
      "html": "",
      "date_created": "2022-08-14T00:00:00.000Z",
      "date_modified": "2022-08-14T00:00:00.000Z",
      "fees": {},
      "category": "Intellectual Property and Technology",
      "subcategory": "Copyright",
      "tags": [
        "copyright",
        "cease",
        "desist",
        "letter",
        "domain",
        "stop",
        "internet",
        "infringement"
      ],
      "jurisdiction": "National",
      "state": "National",
      "image_path": "mclawassets/images/product_images/trademark-infringement-cease-and-desist-letter.pdf",
      "description": "A letter from (or on behalf of) a copyright owner requesting that the recipient cease and desist from using an infringing copyright and demanding the infringement's cancellation or transfer and other remedies and assurances from the alleged infringer. This document package includes your customized legal document, an instructional guide with directions for using the document, a three-month MC Law Law Library subscription to research your legal issues, and lifetime monitoring and updates.",
      "notes": [
        {
          "title": "",
          "text": ""
        },
        {
          "title": "",
          "text": ""
        }
      ],
      "faqs": [
        {
          "question": "What Is a Cease and Desist Letter?",
          "answer": "A cease and desist letter does not automatically signify a lawsuit. It is simply a warning about illegal behavior that lets you know that further penalties could follow if the behavior, such as patent infringement, doesn't stop.\n\nHere are some ways it is possible to violate the intellectual property of another:\n\n    Plagiarizing someone's work\n    Using an invention without the right to access it\n    Engaging in illegal or suspicious activity that involves someone's work\n\nThe first step that you can take to address these issues is to send a cease and desist letter. This letter puts the person in violation on notice that they are engaging in illegal use of a property. It advises them to stop, or further action will occur.\n\nOther names for a cease and desist letter include:\n\n    Cease and desist notice\n    Cease and desist form\n    Demand letter\n    Stop harassment letter\n\nAll of these examples are simply formal letters warning the person to stop their illegal behavior."
        },
        {
          "question": "What is a Cease and Desist Order?",
          "answer": "A cease and desist order is different from a cease and desist letter. The main difference is in terms of legality. Letters have almost no legal standing. Orders do. A cease and desist order is granted by a court. It serves as a temporary injunction. The party that receives the order must stop what they're doing until a trial can be held. After the trial, a permanent injunction may be ordered.Reasons to request a cease and desist order include the following: Libel, Defamation. Libel is when you are being attacked in print. Defamation is a verbal attack on your reputation."
        },
        {
          "question": "What Are the Uses of a Cease and Desist?",
          "answer": "There is a number of cases that might lead someone to issue a cease and desist. These include:\n\n    Character assassination, libel, slander, or defamation\n    Trademark infringement\n    Copyright infringement\n    Patent infringement (Design or Utility)\n    Violation of non-competition agreement\n    Harassment, including by debt collectors under the Fair Debt Collections Practices Act\n    Breach of contract\n\nA cease and desist can also be used to stop contributory infringement. This is when someone knowingly contributes to infringement, but did not actively participate in it. It is sometimes known as \"secondary liability\" or \"contributory liability.\""
        },
        {
          "question": "When Should I Send a Cease and Desist?",
          "answer": "Use a cease and desist notice if you want to issue a formal warning to someone to stop doing what they're doing. This includes using your property, harassing you, or illegally using your trademarks.\n\nUsually, but not always, a cease and desist is the first formal step following an informal notification. Many people first informally ask the infringer to stop what they're doing. If they don't, a cease and desist is the next step. It adds a weight of formality to your request. It can also serve as a step to begin further legal processes, if necessary.\n\nA compelling reason to use a cease and desist is that it is much faster than beginning formal legal proceedings. It also often stops the offending behavior without the need to take it any further."
        },
        {
          "question": "What Legal Weight Does a Cease and Desist Notice Have?",
          "answer": "In practical terms, a cease and desist has no real legal weight. However, it fulfills an important function in the legal process. It establishes that you have told the offender about their violation. They now cannot claim they didn't know they were in violation.\n\nSuch a letter places an informal injunction on the actions of the person in violation, who can then:\n\n    Stop their behavior\n    Challenge the validity of the letter\n    Ignore it, and face the consequences of further legal action\n\nSay the cease and desist is legitimate but challenged. The next step is a formal hearing to review the validity of the demands in the notice. The judge will determine if the defendant must stop the behavior. Failure to comply after that is punishable by law."
        }
      ],
      "related_products": [
        "domain-name-cease-and-desist-letter",
        "trademark-infringement-cease-and-desist-letter",
        "copyright-infringement-cease-and-desist-letter",
        "patent-infringement-cease-and-desist-letter",
        "dmca-complaint-takedown-notice"
      ],
      "form_fields": [
        {
          "type": "text",
          "name": "copyright_owner",
          "id": "copyright_owner",
          "value": "",
          "required": "true",
          "label": "What is the name of the copyright owner?"
        },
        {
          "type": "select",
          "name": "entity_type",
          "id": "entity_type",
          "value": "",
          "options": [
            "corporation",
            "llc",
            "partnership",
            "individual"
          ],
          "required": "true"
        }
      ]
    },
    {
      "title": "Domain Name Cease and Desist Letter",
      "slug": "domain-name-cease-and-desist-letter",
      "price": 159,
      "automated": false,
      "published": true,
      "featured": true,
      "text": "",
      "html": "",
      "date_created": "2022-08-14T00:00:00.000Z",
      "date_modified": "2022-08-14T00:00:00.000Z",
      "fees": {},
      "category": "Intellectual Property and Technology",
      "subcategory": "Trademarks",
      "tags": [
        "domain name",
        "internet",
        "infringement"
      ],
      "jurisdiction": "National",
      "state": "National",
      "image_path": "mclawassets/images/product_images/domain-name-cease-and-desist-letter.pdf",
      "description": "A letter from (or on behalf of) a trademark owner requesting that the recipient cease and desist from using an infringing domain name and demanding the domain name's cancellation or transfer and other remedies and assurances from the alleged infringer. This document package includes your customized legal document, an instructional guide with directions for using the document, a three-month MC Law Law Library subscription to research your legal issues, and lifetime monitoring and updates.",
      "notes": [
        {
          "title": "",
          "text": ""
        },
        {
          "title": "",
          "text": ""
        }
      ],
      "faqs": [
        {
          "question": "What Is a Cease and Desist Letter?",
          "answer": "A cease and desist letter does not automatically signify a lawsuit. It is simply a warning about illegal behavior that lets you know that further penalties could follow if the behavior, such as patent infringement, doesn't stop.\n\nHere are some ways it is possible to violate the intellectual property of another:\n\n    Plagiarizing someone's work\n    Using an invention without the right to access it\n    Engaging in illegal or suspicious activity that involves someone's work\n\nThe first step that you can take to address these issues is to send a cease and desist letter. This letter puts the person in violation on notice that they are engaging in illegal use of a property. It advises them to stop, or further action will occur.\n\nOther names for a cease and desist letter include:\n\n    Cease and desist notice\n    Cease and desist form\n    Demand letter\n    Stop harassment letter\n\nAll of these examples are simply formal letters warning the person to stop their illegal behavior."
        },
        {
          "question": "What is a Cease and Desist Order?",
          "answer": "A cease and desist order is different from a cease and desist letter. The main difference is in terms of legality. Letters have almost no legal standing. Orders do. A cease and desist order is granted by a court. It serves as a temporary injunction. The party that receives the order must stop what they're doing until a trial can be held. After the trial, a permanent injunction may be ordered.Reasons to request a cease and desist order include the following: Libel, Defamation. Libel is when you are being attacked in print. Defamation is a verbal attack on your reputation."
        },
        {
          "question": "What Are the Uses of a Cease and Desist?",
          "answer": "There is a number of cases that might lead someone to issue a cease and desist. These include:\n\n    Character assassination, libel, slander, or defamation\n    Trademark infringement\n    Copyright infringement\n    Patent infringement (Design or Utility)\n    Violation of non-competition agreement\n    Harassment, including by debt collectors under the Fair Debt Collections Practices Act\n    Breach of contract\n\nA cease and desist can also be used to stop contributory infringement. This is when someone knowingly contributes to infringement, but did not actively participate in it. It is sometimes known as \"secondary liability\" or \"contributory liability.\""
        },
        {
          "question": "When Should I Send a Cease and Desist?",
          "answer": "Use a cease and desist notice if you want to issue a formal warning to someone to stop doing what they're doing. This includes using your property, harassing you, or illegally using your trademarks.\n\nUsually, but not always, a cease and desist is the first formal step following an informal notification. Many people first informally ask the infringer to stop what they're doing. If they don't, a cease and desist is the next step. It adds a weight of formality to your request. It can also serve as a step to begin further legal processes, if necessary.\n\nA compelling reason to use a cease and desist is that it is much faster than beginning formal legal proceedings. It also often stops the offending behavior without the need to take it any further."
        },
        {
          "question": "What Legal Weight Does a Cease and Desist Notice Have?",
          "answer": "In practical terms, a cease and desist has no real legal weight. However, it fulfills an important function in the legal process. It establishes that you have told the offender about their violation. They now cannot claim they didn't know they were in violation.\n\nSuch a letter places an informal injunction on the actions of the person in violation, who can then:\n\n    Stop their behavior\n    Challenge the validity of the letter\n    Ignore it, and face the consequences of further legal action\n\nSay the cease and desist is legitimate but challenged. The next step is a formal hearing to review the validity of the demands in the notice. The judge will determine if the defendant must stop the behavior. Failure to comply after that is punishable by law."
        }
      ],
      "related_products": [
        "domain-name-cease-and-desist-letter",
        "trademark-infringement-cease-and-desist-letter",
        "copyright-infringement-cease-and-desist-letter",
        "patent-infringement-cease-and-desist-letter",
        "dmca-complaint-takedown-notice"
      ],
      "form_fields": [
        {
          "type": "text",
          "name": "copyright_owner",
          "id": "copyright_owner",
          "value": "",
          "required": "true",
          "label": "What is the name of the copyright owner?"
        },
        {
          "type": "select",
          "name": "entity_type",
          "id": "entity_type",
          "value": "",
          "options": [
            "corporation",
            "llc",
            "partnership",
            "individual"
          ],
          "required": "true"
        }
      ]
    },
    {
      "title": "Workplace Searches Policy",
      "slug": "workplace-searches-policy",
      "price": 69,
      "automated": false,
      "published": true,
      "featured": true,
      "text": "",
      "html": "",
      "date_created": "2022-08-14T00:00:00.000Z",
      "date_modified": "2022-08-14T00:00:00.000Z",
      "fees": {},
      "category": "Labor and Employment",
      "subcategory": "Policies and Procedures",
      "tags": [
        "search",
        "seizure",
        "work",
        "employer"
      ],
      "jurisdiction": "National",
      "state": "National",
      "image_path": "mclawassets/images/product_images/workplace-searches-policy.pdf",
      "description": "A policy reserving an employer's right to conduct workplace searches. This document package includes your customized legal document, an instructional guide with directions for using the document, a three-month MC Law Law Library subscription to research your legal issues, and lifetime monitoring and updates.",
      "notes": [
        {
          "title": "Website Privacy Policies",
          "text": "A website privacy policy notifies users about the website operator's practices concerning the collection, storage, use, and disclosure of information, including personal information. This website privacy policy is intended for use as a model for a website that collects basic personal information (for example, name, address, and credit card information) from users of the site in an online application or registration form for purposes that may include: Providing goods or services, including content and information. Using interactive features or social media applications. Direct marketing. However, no model privacy policy works for all or even most websites. Instead, a website privacy policy must be carefully drafted to specifically reflect the company's actual or anticipated information collection and privacy practices. For more information on drafting privacy disclosures, see Practice Note, Drafting Privacy Notices. This website privacy policy is designed for use in conjunction with the Standard Document, Website Terms of Use."
        },
        {
          "title": "Legal Issues",
          "text": "Websites that collect user information should post a privacy policy on the site to disclose the site operator's information collection and privacy practices. In the US, website privacy policies must comply with applicable privacy and data security laws, including: The Federal Trade Commission Act (15 U.S.C. § 45), regulating unfair or deceptive business practices and providing guidance on consumer privacy disclosures. The Children's Online Privacy Protection Act (COPPA), regulating the online privacy of children under 13. The Gramm-Leach-Bliley Act (GLBA), regulating personal information held by financial institutions. The Health Insurance Portability and Accountability Act (HIPAA), regulating health and medical information held by healthcare providers and other healthcare entities."
        }
      ],
      "faqs": [
        {
          "question": "Do I need a privacy policy?",
          "answer": "If you collect any sort of personal information about visitors to your website or users of your app then you legally need to have a Privacy Policy."
        },
        {
          "question": "Is a privacy policy required by law?",
          "answer": "This is the most important reason to have a Privacy Policy on your website or app. Privacy laws in most countries dictate that website owners and app developers need to make a Privacy Policy available to their users. For example, in the US the California Online Privacy Protection Act (CalOPPA) instructs that all commercial websites and apps that collect and maintain personally identifiable information from California residents must have a Privacy Policy"
        },
        {
          "question": "Can I request the email address of a customer without a Privacy Policy?",
          "answer": "The bottom line is that if you request any information from a customer through your website or app, including an email address, you need a Privacy Policy."
        },
        {
          "question": "What is the Trademark Electronic Application System (TEAS)?",
          "answer": "The Trademark Electronic Application System (TEAS) allows you to fill out online USPTO forms. You can submit the forms directly to the USPTO over the Internet and pay by credit cards, electronic funds transfer, or through an existing USPTO deposit account. TEAS can also be used to file other documents including a response to an examining attorney's Office action, a change of address, an allegation of use, and post registration maintenance documents."
        },
        {
          "question": "What is the Trademark Electronic Application System (TEAS)?",
          "answer": "The Trademark Electronic Application System (TEAS) allows you to fill out online USPTO forms. You can submit the forms directly to the USPTO over the Internet and pay by credit cards, electronic funds transfer, or through an existing USPTO deposit account. TEAS can also be used to file other documents including a response to an examining attorney's Office action, a change of address, an allegation of use, and post registration maintenance documents."
        }
      ],
      "related_products": [
        "website-privacy-policy",
        "domain-name-cease-and-desist-letter",
        "performance-review-policy",
        "dmca-complaint-takedown-notice"
      ],
      "form_fields": [
        {
          "type": "text",
          "name": "employer_name",
          "id": "employer_name",
          "value": "",
          "required": "true",
          "label": "What is the name of the Employer?"
        },
        {
          "type": "select",
          "name": "entity_type",
          "id": "entity_type",
          "value": "",
          "options": [
            "corporation",
            "llc",
            "partnership",
            "individual"
          ],
          "required": "true"
        }
      ]
    },
    {
      "title": "Performance Review Policy",
      "slug": "performance-review-policy",
      "price": 239,
      "automated": false,
      "published": true,
      "featured": true,
      "text": "",
      "html": "",
      "date_created": "2022-08-14T00:00:00.000Z",
      "date_modified": "2022-08-14T00:00:00.000Z",
      "fees": {},
      "category": "Labor and Employment",
      "subcategory": "Policies and Procedures",
      "tags": [
        "employer",
        "employee",
        "labor",
        "performance",
        "review"
      ],
      "jurisdiction": "National",
      "state": "National",
      "image_path": "mclawassets/images/product_images/performance-review-policy.pdf",
      "description": "An employer policy on performance reviews. This document package includes your customized legal document, an instructional guide with directions for using the document, a three-month MC Law Law Library subscription to research your legal issues, and lifetime monitoring and updates.",
      "notes": [
        {
          "title": "Website Privacy Policies",
          "text": "A website privacy policy notifies users about the website operator's practices concerning the collection, storage, use, and disclosure of information, including personal information. This website privacy policy is intended for use as a model for a website that collects basic personal information (for example, name, address, and credit card information) from users of the site in an online application or registration form for purposes that may include: Providing goods or services, including content and information. Using interactive features or social media applications. Direct marketing. However, no model privacy policy works for all or even most websites. Instead, a website privacy policy must be carefully drafted to specifically reflect the company's actual or anticipated information collection and privacy practices. For more information on drafting privacy disclosures, see Practice Note, Drafting Privacy Notices. This website privacy policy is designed for use in conjunction with the Standard Document, Website Terms of Use."
        },
        {
          "title": "Legal Issues",
          "text": "Websites that collect user information should post a privacy policy on the site to disclose the site operator's information collection and privacy practices. In the US, website privacy policies must comply with applicable privacy and data security laws, including: The Federal Trade Commission Act (15 U.S.C. § 45), regulating unfair or deceptive business practices and providing guidance on consumer privacy disclosures. The Children's Online Privacy Protection Act (COPPA), regulating the online privacy of children under 13. The Gramm-Leach-Bliley Act (GLBA), regulating personal information held by financial institutions. The Health Insurance Portability and Accountability Act (HIPAA), regulating health and medical information held by healthcare providers and other healthcare entities."
        }
      ],
      "faqs": [
        {
          "question": "Do I need a privacy policy?",
          "answer": "If you collect any sort of personal information about visitors to your website or users of your app then you legally need to have a Privacy Policy."
        },
        {
          "question": "Is a privacy policy required by law?",
          "answer": "This is the most important reason to have a Privacy Policy on your website or app. Privacy laws in most countries dictate that website owners and app developers need to make a Privacy Policy available to their users. For example, in the US the California Online Privacy Protection Act (CalOPPA) instructs that all commercial websites and apps that collect and maintain personally identifiable information from California residents must have a Privacy Policy"
        },
        {
          "question": "Can I request the email address of a customer without a Privacy Policy?",
          "answer": "The bottom line is that if you request any information from a customer through your website or app, including an email address, you need a Privacy Policy."
        },
        {
          "question": "What is the Trademark Electronic Application System (TEAS)?",
          "answer": "The Trademark Electronic Application System (TEAS) allows you to fill out online USPTO forms. You can submit the forms directly to the USPTO over the Internet and pay by credit cards, electronic funds transfer, or through an existing USPTO deposit account. TEAS can also be used to file other documents including a response to an examining attorney's Office action, a change of address, an allegation of use, and post registration maintenance documents."
        },
        {
          "question": "What is the Trademark Electronic Application System (TEAS)?",
          "answer": "The Trademark Electronic Application System (TEAS) allows you to fill out online USPTO forms. You can submit the forms directly to the USPTO over the Internet and pay by credit cards, electronic funds transfer, or through an existing USPTO deposit account. TEAS can also be used to file other documents including a response to an examining attorney's Office action, a change of address, an allegation of use, and post registration maintenance documents."
        }
      ],
      "related_products": [
        "website-privacy-policy",
        "domain-name-cease-and-desist-letter",
        "performance-review-policy",
        "dmca-complaint-takedown-notice"
      ],
      "form_fields": [
        {
          "type": "text",
          "name": "employer_name",
          "id": "employer_name",
          "value": "",
          "required": "true",
          "label": "What is the name of the Employer?"
        },
        {
          "type": "select",
          "name": "entity_type",
          "id": "entity_type",
          "value": "",
          "options": [
            "corporation",
            "llc",
            "partnership",
            "individual"
          ],
          "required": "true"
        }
      ]
    },
    {
      "title": "Website Copyright DMCA Policy",
      "slug": "website-copyright-dmca-policy",
      "price": 119,
      "automated": false,
      "published": true,
      "featured": true,
      "text": "",
      "html": "",
      "date_created": "2022-08-14T00:00:00.000Z",
      "date_modified": "2022-08-14T00:00:00.000Z",
      "fees": {},
      "category": "Intellectual Property and Technology",
      "subcategory": "Copyright",
      "tags": [
        "copyright",
        "dmca",
        "takedown notice",
        "safe harbor",
        "website"
      ],
      "jurisdiction": "National",
      "state": "National",
      "image_path": "mclawassets/images/product_images/website-copyright-dmca-policy.pdf",
      "description": "A legal policy for websites that allow users to upload, store, or link to third-party materials, including user-generated content. This document package includes your customized legal document, an instructional guide with directions for using the document, a three-month MC Law Law Library subscription to research your legal issues, and lifetime monitoring and updates.",
      "notes": [
        {
          "title": "",
          "text": ""
        },
        {
          "title": "",
          "text": ""
        }
      ],
      "faqs": [
        {
          "question": "What is a DMCA Complaint (Takedown Notice)?",
          "answer": "The DMCA was enacted in 1998 to expand existing copyright law to include and address issues surrounding the internet and digital media. A DMCA takedown notice is a tool that copyright owners can use to help enforce the protections that the DMCA provides.\n\nTitle II of the DCMA limits the liability of internet service providers (ISPs) in copyright infringement cases when they voluntarily comply with the law. A copyright owner provides notice to an ISP via the DMCA notice. To avoid liability, ISPs must respond to any complaint of copyright infringement by removing the work or the portion of work that has been identified, and contacting its client or account holder who was infringing on the copyright.\n\nSix items must be included on a DMCA takedown notice:\n\n    Signature of the copyright owner whose work was infringed\n    Identification of the copyrighted work that has allegedly been violated (e.g., name, title, type of media)\n    Specifics about the portion of the copyrighted work that has been infringed\n    Contact information for the copyright owner\n    Statement that indicates that permission has not been granted to use the copyrighted work\n    Statement that the information contained in the DMCA takedown notice is accurate and that the person writing the notice has the authority to act on behalf of the copyrighted work (can either be the copyright owner or an agent of the copyright holder).\n\nWhile sending the DMCA takedown notice to an ISP is most common, the copyright owner can also directly contact the copyright infringer directly by sending a takedown request, an invoice with the cost of licensing rights to use the material in question or a request that you add a credit to the material. You may also receive communication from an attorney representing the copyright owner seeking any of the above."
        },
        {
          "question": "What happens if I receive a DMCA Complaint (Takedown Notice)?",
          "answer": "Once you receive a DMCA notice — either directly or through your ISP — review and confirm the alleged copyright infringement listed on the takedown notice. If you can confirm that there is a copyright infringement, you should proceed with taking down the identified material.\n\nHowever, if you have reason to dispute the takedown notice because you have permission to use the copyrighted material, send a counter-notification back to the party who sent you the takedown notice — your ISP, the copyright owner or their agent.\n\nNo matter who sends you the DMCA takedown notice and whether you confirm or dispute the alleged copyright infringement, it is crucial that you respond to the notice immediately. If you fail to respond, you could be facing a copyright infringement lawsuit."
        },
        {
          "question": "Does DMCA apply outside of the USA?",
          "answer": "No, the DMCA is part of the United States copyright law, therefore is applicable only to the websites hosted in the US. All sites hosted in the US are bound to obey the law. Therefore even if the copyright owner is outside of the US, they can still issue DMCA notice if the hosting website is located in the US.\n\nHowever, there are many hosting providers and businesses who despite being hosted outside the US comply with their own copyright law and often accept DMCA takedown notices to avoid any legal aftermath in their own country.\n\nIn addition to that, most sites hosted in World Intellectual Property Organizations (WIPO) countries abide by the Digital Rights Management (DRM) law and entertain DMCA takedown notices. At this time there are around 200 countries that have signed the WIPO treaty."
        },
        {
          "question": "What is a DMCA safe harbor?",
          "answer": "DMCA safe harbor is referred to the provision of the Digital Millennium Copyright Act which provides safe heaven to Online Service Providers (OSP) and other internet intermediaries by exempting them from direct copyright infringement.\n\nThere are four safe harbors approved by Congress and in these cases, there is limited to no copyright infringement liability for Online Service Providers. Following are the permitted safe harbors under DMCA:\n\n    System caching\n    Information location tools\n    Temporary digital network communication\n    Storing information at the user’s direction on system or network\n\nThe reason behind creating DMCA safe harbors is to expand the internet and to improve the quality and variety of services to be provided on the internet. It wasn't possible to achieve it by limiting the liability for Internet Service Providers (ISPs).\n\nISPs would have found themselves committing copyright infringements while making copies of copyrighted content for the purpose of enhanced speed, hosting websites, or simply directing users to sites that possibly contain infringing content.\n\nAs such to avoid these problems and for the better efficiency and expansion of the internet, there’s limited liability for ISPs and sites falling under one of the safe harbor categories."
        },
        {
          "question": "Who must designate an agent?",
          "answer": "Any service provider (within the meaning of 17 U.S.C. 512(k)(1)) seeking the safe harbor protections of section 512. Related or affiliated service providers that are separate legal entities (e.g., corporate parents and subsidiaries) are considered separate service providers, and each must have its own separate designation."
        }
      ],
      "related_products": [
        "website-privacy-policy",
        "domain-name-cease-and-desist-letter",
        "performance-review-policy",
        "dmca-complaint-takedown-notice",
        "trademark-registration"
      ],
      "form_fields": [
        {
          "type": "text",
          "name": "copyright_owner",
          "id": "copyright_owner",
          "value": "",
          "required": "true",
          "label": "What is the name of the copyright owner?"
        },
        {
          "type": "select",
          "name": "entity_type",
          "id": "entity_type",
          "value": "",
          "options": [
            "corporation",
            "llc",
            "partnership",
            "individual"
          ],
          "required": "true"
        }
      ]
    }
  ]
}